<?xml version="1.0" encoding="UTF-8" standalone="no"?>
<svg
   xmlns:dc="http://purl.org/dc/elements/1.1/"
   xmlns:cc="http://creativecommons.org/ns#"
   xmlns:rdf="http://www.w3.org/1999/02/22-rdf-syntax-ns#"
   xmlns:svg="http://www.w3.org/2000/svg"
   xmlns="http://www.w3.org/2000/svg"
   xmlns:sodipodi="http://sodipodi.sourceforge.net/DTD/sodipodi-0.dtd"
   xmlns:inkscape="http://www.inkscape.org/namespaces/inkscape"
   width="210mm"
   height="297mm"
   viewBox="0 0 210 297"
   version="1.1"
   id="svg8"
   inkscape:version="1.0.1 (3bc2e813f5, 2020-09-07)"
   sodipodi:docname="vector-icon.svg">
  <defs
     id="defs2" />
  <sodipodi:namedview
     id="base"
     pagecolor="#ffffff"
     bordercolor="#666666"
     borderopacity="1.0"
     inkscape:pageopacity="0.0"
     inkscape:pageshadow="2"
     inkscape:zoom="1"
     inkscape:cx="13.293184"
     inkscape:cy="-37.762123"
     inkscape:document-units="px"
     inkscape:current-layer="layer1"
     inkscape:document-rotation="0"
     showgrid="false"
     showborder="false"
     inkscape:snap-smooth-nodes="true"
     inkscape:snap-text-baseline="true"
     inkscape:window-width="1872"
     inkscape:window-height="1051"
     inkscape:window-x="3440"
     inkscape:window-y="0"
     inkscape:window-maximized="1"
     showguides="false" />
  <metadata
     id="metadata5">
    <rdf:RDF>
      <cc:Work
         rdf:about="">
        <dc:format>image/svg+xml</dc:format>
        <dc:type
           rdf:resource="http://purl.org/dc/dcmitype/StillImage" />
        <dc:title></dc:title>
      </cc:Work>
    </rdf:RDF>
  </metadata>
  <g
     inkscape:label="Layer 1"
     inkscape:groupmode="layer"
     id="layer1">
    <rect
       style="opacity:1;fill:#ffffff;fill-opacity:0.999386;stroke:#ff0000;stroke-width:0;stroke-linecap:butt;stroke-miterlimit:4;stroke-dasharray:none;stroke-opacity:1"
       id="rect1325"
       width="111.125"
       height="89.958336"
       x="5e-07"
       y="7.9375005" />
    <path
       id="rect965"
       style="opacity:1;fill:#cc3d53;fill-opacity:1;stroke-width:0.620001;stroke-miterlimit:4;stroke-dasharray:none"
       d="M 10 40 L 10 80 L 10 160 L 50 160 L 50 80 L 370 80 L 370 160 L 410 160 L 410 80 L 410 40 L 370 40 L 10 40 z "
       transform="scale(0.26458333)" />
    <path
       id="rect973"
       style="opacity:1;fill:#000000;stroke-width:0.619676"
       d="M 10 240 L 10 360 L 50 360 L 370 360 L 410 360 L 410 320 L 410 240 L 370 240 L 370 320 L 50 320 L 50 240 L 10 240 z "
       transform="scale(0.26458333)" />
    <path
       style="fill:none;stroke:#000000;stroke-width:10.4751;stroke-linecap:round;stroke-linejoin:miter;stroke-miterlimit:4;stroke-dasharray:none;stroke-opacity:1"
       d="M 33.391576,34.341757 19.789673,88.689532 v 0"
       id="path1000"
       sodipodi:nodetypes="ccc" />
    <g
       id="g1281"
       transform="translate(1.3229165,10.583333)">
      <circle
         style="opacity:1;fill:#000000;stroke-width:0.185208"
         id="path979"
         cx="48.947918"
         cy="27.78125"
         r="9.260417" />
      <path
         style="opacity:1;fill:#e2dcdc;fill-opacity:0;stroke:#ffffff;stroke-width:2.81675;stroke-linecap:butt;stroke-miterlimit:4;stroke-dasharray:none;stroke-opacity:1"
         id="path1080"
         sodipodi:type="arc"
         sodipodi:cx="48.947918"
         sodipodi:cy="27.78125"
         sodipodi:rx="6.5291753"
         sodipodi:ry="6.5291743"
         sodipodi:start="1.850561"
         sodipodi:end="2.8878238"
         sodipodi:arc-type="arc"
         d="M 47.14502,34.056573 A 6.5291753,6.5291743 0 0 1 42.627852,29.420425"
         sodipodi:open="true" />
    </g>
    <g
       id="g1287"
       transform="translate(1.3229165,10.583333)">
      <circle
         style="opacity:1;fill:#000000;stroke-width:0.185208"
         id="circle1283"
         cx="48.947918"
         cy="27.78125"
         r="9.260417" />
      <path
         style="opacity:1;fill:#e2dcdc;fill-opacity:0;stroke:#ffffff;stroke-width:2.81675;stroke-linecap:butt;stroke-miterlimit:4;stroke-dasharray:none;stroke-opacity:1"
         id="path1285"
         sodipodi:type="arc"
         sodipodi:cx="48.947918"
         sodipodi:cy="27.78125"
         sodipodi:rx="6.5291753"
         sodipodi:ry="6.5291743"
         sodipodi:start="1.850561"
         sodipodi:end="2.8878238"
         sodipodi:arc-type="arc"
         d="M 47.14502,34.056573 A 6.5291753,6.5291743 0 0 1 42.627852,29.420425"
         sodipodi:open="true" />
    </g>
    <g
       id="g1307"
       transform="translate(-3.9687509,31.750002)">
      <circle
         style="opacity:1;fill:#000000;stroke-width:0.185208"
         id="circle1303"
         cx="48.947918"
         cy="27.78125"
         r="9.260417" />
      <path
         style="opacity:1;fill:#e2dcdc;fill-opacity:0;stroke:#ffffff;stroke-width:2.81675;stroke-linecap:butt;stroke-miterlimit:4;stroke-dasharray:none;stroke-opacity:1"
         id="path1305"
         sodipodi:type="arc"
         sodipodi:cx="48.947918"
         sodipodi:cy="27.78125"
         sodipodi:rx="6.5291753"
         sodipodi:ry="6.5291743"
         sodipodi:start="1.850561"
         sodipodi:end="2.8878238"
         sodipodi:arc-type="arc"
         d="M 47.14502,34.056573 A 6.5291753,6.5291743 0 0 1 42.627852,29.420425"
         sodipodi:open="true" />
    </g>
    <g
       id="g1313"
       transform="translate(33.072918,31.750002)">
      <circle
         style="opacity:1;fill:#000000;stroke-width:0.185208"
         id="circle1309"
         cx="48.947918"
         cy="27.78125"
         r="9.260417" />
      <path
         style="opacity:1;fill:#e2dcdc;fill-opacity:0;stroke:#ffffff;stroke-width:2.81675;stroke-linecap:butt;stroke-miterlimit:4;stroke-dasharray:none;stroke-opacity:1"
         id="path1311"
         sodipodi:type="arc"
         sodipodi:cx="48.947918"
         sodipodi:cy="27.78125"
         sodipodi:rx="6.5291753"
         sodipodi:ry="6.5291743"
         sodipodi:start="1.850561"
         sodipodi:end="2.8878238"
         sodipodi:arc-type="arc"
         d="M 47.14502,34.056573 A 6.5291753,6.5291743 0 0 1 42.627852,29.420425"
         sodipodi:open="true" />
    </g>
    <g
       id="g1319"
       transform="translate(38.364583,10.583333)">
      <circle
         style="opacity:1;fill:#000000;stroke-width:0.185208"
         id="circle1315"
         cx="48.947918"
         cy="27.78125"
         r="9.260417" />
      <path
         style="opacity:1;fill:#e2dcdc;fill-opacity:0;stroke:#ffffff;stroke-width:2.81675;stroke-linecap:butt;stroke-miterlimit:4;stroke-dasharray:none;stroke-opacity:1"
         id="path1317"
         sodipodi:type="arc"
         sodipodi:cx="48.947918"
         sodipodi:cy="27.78125"
         sodipodi:rx="6.5291753"
         sodipodi:ry="6.5291743"
         sodipodi:start="1.850561"
         sodipodi:end="2.8878238"
         sodipodi:arc-type="arc"
         d="M 47.14502,34.056573 A 6.5291753,6.5291743 0 0 1 42.627852,29.420425"
         sodipodi:open="true" />
    </g>
    <path
       style="fill:none;stroke:#000000;stroke-width:10.4751;stroke-linecap:round;stroke-linejoin:miter;stroke-miterlimit:4;stroke-dasharray:none;stroke-opacity:1"
       d="M 70.433203,34.341757 56.8313,88.689532 v 0"
       id="path1340"
       sodipodi:nodetypes="ccc" />
  </g>
</svg>
